<svg xmlns="http://www.w3.org/2000/svg" xmlns:xlink="http://www.w3.org/1999/xlink" width="120" height="108" viewBox="0 0 120 108">
    <defs>
        <path id="a" d="M30.142 27.488H.25V.012h29.893v27.476z"/>
        <linearGradient id="c" x1="3.655%" x2="98.015%" y1="72.832%" y2="33.422%">
            <stop offset="0%" stop-color="#646464"/>
            <stop offset="35.112%"/>
            <stop offset="63.654%" stop-color="#3F3F3F"/>
            <stop offset="85.18%"/>
            <stop offset="100%" stop-color="#4C4C4C"/>
        </linearGradient>
    </defs>
    <g fill="none" fill-rule="evenodd">
        <path d="M-.59-5.59h120.18v120.18H-.59z"/>
        <path fill="#4B189B" d="M34.963 14.17c8.36-5.645 16.611-7.337 24.757-5.074 8.143 2.262 15.715 8.575 22.715 18.94 6.728 9.963 9.597 19.163 8.61 27.594-.99 8.43-5.62 15.439-13.889 21.022-8.27 5.585-16.545 7.147-24.823 4.684-8.278-2.462-15.648-8.476-22.108-18.043-6.663-9.865-9.63-19.108-8.898-27.726.728-8.62 5.274-15.75 13.636-21.396"/>
        <path fill="#4B189B" d="M10.278 66.082c-.988-9.024.86-16.274 5.545-21.752 4.684-5.475 12.101-8.77 22.253-9.88 9.758-1.068 17.52.59 23.285 4.971 5.762 4.384 9.134 11.04 10.11 19.964.977 8.928-.974 16.14-5.854 21.637s-12.005 8.759-21.374 9.784c-9.662 1.058-17.493-.543-23.489-4.8-5.998-4.258-9.489-10.898-10.476-19.924"/>
        <path fill="#4B189B" d="M30.5 76.595c-1.676-10.104-.165-18.367 4.533-24.79 4.695-6.421 12.494-10.536 23.397-12.343 10.48-1.737 18.984-.295 25.512 4.32 6.525 4.62 10.62 11.927 12.275 21.92 1.658 9.997.033 18.223-4.874 24.679-4.908 6.455-12.392 10.518-22.454 12.186-10.377 1.72-18.951.348-25.721-4.117-6.773-4.464-10.994-11.747-12.669-21.855"/>
        <path fill="#4B189B" d="M70.529 27.2c3.111-5.776 7.03-9.416 11.758-10.92 4.725-1.504 10.039-.666 15.94 2.513 5.672 3.056 9.172 6.99 10.5 11.794 1.327 4.806.451 10.066-2.626 15.778-3.079 5.714-7.038 9.292-11.878 10.734-4.84 1.442-9.983.696-15.43-2.238-5.616-3.026-9.176-6.95-10.678-11.769-1.504-4.82-.699-10.116 2.414-15.893"/>
        <g transform="translate(44.63 79.728)">
            <mask id="b" fill="#fff">
                <use xlink:href="#a"/>
            </mask>
            <path fill="#4B189B" d="M23.077 2.039a6.676 6.676 0 0 0-2.305-.627c-.261-.155-.527-.301-.8-.432-2.813-1.344-6.065-1.288-9.757.167-.189.074-.372.152-.555.23-1.19-.029-2.47.225-3.84.765C3.216 3.168 1.526 4.658.749 6.612c-.777 1.953-.649 4.24.385 6.863.465 1.18 1.024 2.178 1.675 3 .146.456.31.918.496 1.388.07.18.144.354.218.529.104 1.025.384 2.116.84 3.272 1.034 2.623 2.529 4.363 4.487 5.221 1.959.859 4.177.8 6.655-.177a11.86 11.86 0 0 0 1.058-.48 16.638 16.638 0 0 0 2.613-.716c1.68.431 3.536.248 5.566-.553 2.403-.947 4.018-2.408 4.845-4.38.828-1.973.73-4.257-.293-6.851a13.357 13.357 0 0 0-.986-2.015c.067-1.356-.21-2.827-.837-4.416-1.022-2.593-2.487-4.346-4.394-5.258" mask="url(#b)"/>
        </g>
        <path fill="#FFF915" d="M66.644 82.262a6.223 6.223 0 0 0-2.153-.585 9.482 9.482 0 0 0-.747-.403c-2.626-1.255-5.663-1.204-9.11.156-.177.07-.348.142-.518.214-1.113-.026-2.308.21-3.587.715-2.431.958-4.01 2.35-4.735 4.173-.726 1.825-.605 3.96.36 6.41.434 1.1.956 2.033 1.564 2.8a20.926 20.926 0 0 0 .667 1.79c.097.958.358 1.977.783 3.056.966 2.449 2.363 4.074 4.192 4.875 1.828.802 3.899.746 6.213-.165.348-.138.676-.288.988-.448a15.465 15.465 0 0 0 2.44-.67c1.57.404 3.302.232 5.197-.515 2.244-.885 3.752-2.249 4.525-4.09.773-1.843.681-3.975-.274-6.398a12.497 12.497 0 0 0-.921-1.882c.063-1.265-.196-2.64-.78-4.123-.956-2.421-2.324-4.058-4.104-4.91"/>
        <path fill="#4B189B" d="M51.972 86.004c-.826.238-1.207.44-1.902 1.009-.168.138-.422.065-.57-.18a40.648 40.648 0 0 1-2.164-4.084c-.465-1 .23-1.803 1.37-2.11 1.14-.308 2.224-.106 2.512.82.486 1.553.692 2.352 1.03 3.992.052.254-.076.496-.276.553M64.997 83.134c-1.135.478-1.842.364-2.977.843-.69.292-1.162.202-1.182-.53l-.008-.295c-.02-.732.278-1.612.75-1.75.774-.227 1.253-.11 2.027-.336.472-.138 1.138-.083 1.572.338l.177.171c.434.422.332 1.267-.36 1.559M57.08 88.582c-2.9 1.576-4.221 4.782-3.147 7.757.943 2.616 3.972 4.618 7.936 3.386 1.642-.51 2.844-1.5 3.476-2.862.676-1.457.64-3.223-.101-4.972-.762-1.799-2.084-3.164-3.628-3.746-1.338-.505-2.793-.412-4.207.27-.112.053-.221.11-.328.167m6.813 12.16a8.353 8.353 0 0 1-1.512.634c-2.018.627-4.129.57-5.946-.162a7.198 7.198 0 0 1-4.13-4.288 7.816 7.816 0 0 1 .22-5.872c.81-1.813 2.279-3.304 4.132-4.197 1.851-.891 3.777-1.005 5.568-.33 1.984.749 3.664 2.458 4.61 4.69.934 2.204.961 4.468.077 6.374-.617 1.33-1.664 2.415-3.02 3.15"/>
        <path fill="#4B189B" d="M63.88 92.411c1.008 2.44-.019 5.108-2.59 5.95-2.347.77-5.054-.174-5.955-2.59-.878-2.355.356-4.918 2.588-5.95 2.435-1.126 4.975.218 5.956 2.59M77.723 100.043l9.98 2.401.265-1.09-9.944-2.438z"/>
        <path fill="#4B189B" d="M89.118 104.76l-13.759-3.31 1.293-4.848 13.635 3.342zM84.972 93.984l5.79.09.066-1.09-5.841-.122z"/>
        <path fill="#4B189B" d="M92.567 96.024l-9.541-.148.065-4.975 9.778.204z"/>
        <path fill="#FFF915" d="M77.517 99.087l9.945 2.54.28-1.087-9.91-2.575zM85.025 93.308l5.851.065.062-1.09-5.842-.097zM81.16 93.242l2.253-.002.062-1.09-2.305-.03z"/>
        <path fill="#4B189B" d="M83.39 84.466l8.76-2.261.238 1.037-8.803 2.292z"/>
        <path fill="#FFF915" d="M83.22 84.463l8.826-2.34.247 1.035-8.789 2.35zM76.466 86.248l5.306-1.392.279 1.027-5.3 1.41z"/>
        <path fill="#4B189B" d="M109.015 40.21l7.211 3.595.48-.963-7.21-3.595z"/>
        <path fill="#4B189B" d="M117.022 46.184l-10.385-5.178 2.063-4.137 10.385 5.178zM111.865 34.692l3.992 1.99.48-.963-3.991-1.99z"/>
        <path fill="#4B189B" d="M116.653 39.06l-7.166-3.573 2.063-4.137 7.166 3.573zM107.494 15.971l6.53-6.469.714.708-6.573 6.513z"/>
        <path fill="#4B189B" d="M108.085 19.299l-3.034-3.404 8.973-8.89 3.234 3.205zM111.867 21.53l4.84-2.638.593.994-4.855 2.665z"/>
        <path fill="#4B189B" d="M111.765 24.947l-2.33-4.11 7.921-4.318 2.408 4.038zM79.028 11.242L72.572 4.57l-.731.705 6.412 6.683z"/>
        <path fill="#4B189B" d="M78.176 14.438l-8.84-9.214 3.28-3.16 8.95 9.251zM74.34 16.57L69.8 13.955l-.531.833 4.565 2.664z"/>
        <path fill="#4B189B" d="M74.484 19.884l-7.703-4.497 2.439-3.815 7.538 4.346zM95.246 8.37l.973-6.317.948.162-.961 6.363z"/>
        <path fill="#4B189B" d="M97.677 10.713l-4.438-.966L94.74 0l4.44.76z"/>
        <path fill="#FFF915" d="M108.12 39.94l7.21 3.595.48-.962-7.21-3.595zM110.97 34.422l3.991 1.99.48-.963-3.99-1.99zM106.599 15.702l6.53-6.47.714.708-6.574 6.514zM110.971 21.26l4.84-2.638.593.995-4.854 2.664zM78.133 10.973l-6.457-6.674-.73.705 6.41 6.683zM73.444 16.3l-4.538-2.615-.532.832 4.565 2.664zM94.35 8.1l.973-6.317.949.162-.962 6.364z"/>
        <path fill="#4B189B" d="M107.86 20.667a8.622 8.622 0 0 0-2.318-2.04 13.37 13.37 0 0 0-.683-.957c-2.497-3.16-6.301-4.95-11.413-5.363a28.613 28.613 0 0 0-.774-.05c-1.366-.71-2.995-1.146-4.892-1.3-3.605-.291-6.414.475-8.427 2.298-2.015 1.824-3.169 4.55-3.463 8.182-.132 1.632-.053 3.11.235 4.434a28.76 28.76 0 0 0-.263 2.63c-.463 1.249-.76 2.673-.89 4.274-.294 3.631.45 6.502 2.232 8.613 1.783 2.111 4.39 3.306 7.821 3.583.516.042 1.015.056 1.5.048 1.073.3 2.219.52 3.44.656 1.704 1.458 3.96 2.301 6.772 2.53 3.327.269 6.032-.506 8.116-2.323 2.083-1.818 3.27-4.522 3.561-8.114.083-1.027.083-1.992.004-2.9.85-1.534 1.366-3.399 1.544-5.599.291-3.59-.41-6.459-2.103-8.602"/>
        <path fill="#FFF915" d="M106.343 20.636a8.05 8.05 0 0 0-2.164-1.905c-.2-.306-.41-.606-.637-.894-2.332-2.95-5.885-4.621-10.657-5.007-.244-.02-.484-.034-.724-.046-1.275-.665-2.796-1.07-4.567-1.214-3.366-.273-5.99.442-7.87 2.145s-2.958 4.25-3.233 7.64c-.123 1.524-.05 2.903.219 4.14-.084.57-.152 1.16-.2 1.766-.02.233-.032.462-.045.69-.433 1.166-.71 2.496-.831 3.99-.275 3.392.42 6.073 2.084 8.044 1.665 1.971 4.1 3.086 7.303 3.346.482.039.948.052 1.402.044 1 .281 2.07.486 3.21.613 1.592 1.361 3.7 2.149 6.324 2.361 3.107.252 5.633-.471 7.579-2.168 1.945-1.697 3.053-4.223 3.325-7.577.078-.958.077-1.86.004-2.707.793-1.433 1.275-3.174 1.441-5.228.272-3.354-.383-6.032-1.963-8.033"/>
        <path fill="#4B189B" d="M87.191 16.62c-1.093-.194-1.65-.177-2.78.088-.275.064-.528-.165-.558-.534a52.467 52.467 0 0 1-.185-5.97c.03-1.425 1.294-1.96 2.791-1.668 1.497.293 2.639 1.145 2.447 2.382-.322 2.08-.538 3.123-1.08 5.218-.084.325-.37.532-.635.485M103.936 20.708c-1.59-.09-2.344-.626-3.933-.716-.968-.055-1.463-.427-1.07-1.287.064-.14.095-.21.16-.349.393-.86 1.239-1.71 1.865-1.602 1.028.178 1.516.587 2.544.765.626.108 1.367.551 1.63 1.288l.108.298c.264.736-.336 1.659-1.304 1.603M91.65 22.521c-4.263.176-7.621 3.142-8.07 7.206-.395 3.57 1.979 7.62 7.278 8.448 2.196.343 4.154-.12 5.663-1.341 1.614-1.305 2.578-3.374 2.714-5.826.14-2.52-.616-4.857-2.075-6.412-1.265-1.347-3.006-2.068-5.035-2.083a9.777 9.777 0 0 0-.476.008m.98 17.986c-.69.028-1.397-.012-2.116-.125-2.698-.422-5.114-1.691-6.805-3.575a9.303 9.303 0 0 1-2.349-7.325 10.1 10.1 0 0 1 3.598-6.688c1.974-1.642 4.526-2.535 7.185-2.515 2.655.02 4.953.985 6.647 2.788 1.875 1.998 2.851 4.938 2.677 8.065-.172 3.09-1.43 5.732-3.54 7.439-1.474 1.192-3.307 1.854-5.297 1.936"/>
        <path fill="#4B189B" d="M97.356 30.835c-.22 3.404-2.93 5.915-6.392 5.428-3.162-.445-5.764-3.082-5.434-6.397.322-3.231 3.215-5.503 6.392-5.429 3.466.081 5.647 3.086 5.434 6.398"/>
        <path fill="#FFF" d="M29.061 96.096c-2.854-6.864-5.942-13.586-9.427-20.21l-.09.024c1.342 3.248 2.31 5.885 2.948 7.784a378.844 378.844 0 0 1 3.939 12.468c-1.244-.03-1.841-.082-2.984-.275-2.968-8.797-6.23-17.47-9.954-26.033a202.15 202.15 0 0 0 5.324-2.126c3.594 6.313 6.779 12.734 9.73 19.31l.083-.016a4880.746 4880.746 0 0 1-2.843-22.185 523.344 523.344 0 0 1 6.598-2.698A629.006 629.006 0 0 1 39.7 94.076a65.198 65.198 0 0 1-3.96.995 722.895 722.895 0 0 0-3.297-13.895c-.18-.712-.374-1.502-.584-2.37-.21-.867-.701-3.004-1.504-6.361l-.107.037c.819 7.726 1.65 15.45 2.493 23.173-1.524.25-2.261.342-3.681.441M44.302 75.121c-.411-1.156-.62-1.733-1.04-2.883a343.14 343.14 0 0 1-.913-2.476 79.046 79.046 0 0 1-.775-2.18c.042.442.097 1.178.164 2.206.068 1.028.167 3.065.3 6.11l2.264-.777m2.463 7.244a282.97 282.97 0 0 0-1.12-3.323c-1.375.47-2.055.702-3.393 1.15l.148 3.642a183.37 183.37 0 0 1-2.95.948c-.195-6.496-.368-12.992-.52-19.489a373.6 373.6 0 0 1 4.025-1.457 396.46 396.46 0 0 1 6.935 17.447c-1.263.44-1.89.658-3.125 1.082M54.677 54.501c-1.229.368-2.059 1.426-2.488 3.16-.43 1.734-.49 4.03 0 6.612.523 2.765 1.481 7.77 5.11 7.055.71-.14 1.531-.683 2.237-1.274a28.927 28.927 0 0 0 2.123-1.983c.284 2.617.419 3.922.676 6.525-1.373 1.54-2.96 2.635-4.776 3.265-2.602.901-4.769.312-6.457-1.74-2.358-2.863-3.288-6.736-3.887-10.228-.507-2.96-.667-5.697-.37-8.188.299-2.492 1.021-4.578 2.197-6.248 1.176-1.668 2.741-2.808 4.682-3.38 2.12-.625 4.282-.5 6.42.363-.328 2.628-.49 3.943-.805 6.577a12.558 12.558 0 0 0-2.305-.669c-.76-.14-1.547-.089-2.357.153M80.841 77.404c-1.867.611-2.802.93-4.67 1.577-.094-3.583-.21-7.164-.346-10.746-2.28.592-3.42.909-5.686 1.565.236 3.699.452 7.397.647 11.097a543.94 543.94 0 0 0-4.621 1.702 786.327 786.327 0 0 0-2.592-28.058c2.09-.522 3.143-.767 5.255-1.218.308 3.452.599 6.903.872 10.357 2.332-.6 3.505-.882 5.851-1.4-.17-3.375-.368-6.75-.596-10.122 2.125-.353 3.19-.508 5.317-.765.355 8.67.554 17.335.57 26.01M83.081 70.83c.016-4.962-.052-9.924-.171-14.884a91.631 91.631 0 0 1 3.007-.346c.033 4.85.019 9.698-.047 14.549-1.113.261-1.672.398-2.789.68M103.118 71.102c-2.182.296-3.295.486-5.55.931-1.615-4.838-3.362-9.638-5.151-14.426l-.11.006c.083 2.564.08 4.473.025 5.79a365.97 365.97 0 0 1-.54 9.923c-1.56.388-2.345.595-3.922 1.031a581.21 581.21 0 0 0 .37-23.621c2.637-.112 3.95-.123 6.546-.038 1.87 4.99 3.694 9.994 5.37 15.04l.067-.005c.113-1.999.217-3.657.332-4.92.297-3.202.545-6.412.747-9.62 1.728.21 2.584.34 4.275.66-.643 6.436-1.393 12.856-2.459 19.249M110.887 67.267c-2.08-.128-3.15-.14-5.33-.08a378.17 378.17 0 0 0 1.588-10.94c2.356.397 3.512.651 5.765 1.284-.161.896-.243 1.339-.411 2.213a44.156 44.156 0 0 0-3.058-.632c-.106.675-.16 1.01-.27 1.674 1.133.166 1.693.262 2.8.484-.171.862-.258 1.287-.434 2.127a44.719 44.719 0 0 0-2.752-.35c-.138.779-.207 1.164-.35 1.925 1.186.072 1.772.122 2.926.255-.186.827-.281 1.236-.474 2.04"/>
        <path fill="#FFF" d="M29.061 96.096c-2.854-6.864-5.942-13.586-9.427-20.21l-.09.024c1.342 3.248 2.31 5.885 2.948 7.784a378.844 378.844 0 0 1 3.939 12.468c-1.244-.03-1.841-.082-2.984-.275-2.968-8.797-6.23-17.47-9.954-26.033a202.15 202.15 0 0 0 5.324-2.126c3.594 6.313 6.779 12.734 9.73 19.31l.083-.016a4880.746 4880.746 0 0 1-2.843-22.185 523.344 523.344 0 0 1 6.598-2.698A629.006 629.006 0 0 1 39.7 94.076a65.198 65.198 0 0 1-3.96.995 722.895 722.895 0 0 0-3.297-13.895c-.18-.712-.374-1.502-.584-2.37-.21-.867-.701-3.004-1.504-6.361l-.107.037c.819 7.726 1.65 15.45 2.493 23.173-1.524.25-2.261.342-3.681.441M44.302 75.121c-.411-1.156-.62-1.733-1.04-2.883a343.14 343.14 0 0 1-.913-2.476 79.046 79.046 0 0 1-.775-2.18c.042.442.097 1.178.164 2.206.068 1.028.167 3.065.3 6.11l2.264-.777m2.463 7.244a282.97 282.97 0 0 0-1.12-3.323c-1.375.47-2.055.702-3.393 1.15l.148 3.642a183.37 183.37 0 0 1-2.95.948c-.195-6.496-.368-12.992-.52-19.489a373.6 373.6 0 0 1 4.025-1.457 396.46 396.46 0 0 1 6.935 17.447c-1.263.44-1.89.658-3.125 1.082M54.677 54.501c-1.229.368-2.059 1.426-2.488 3.16-.43 1.734-.49 4.03 0 6.612.523 2.765 1.481 7.77 5.11 7.055.71-.14 1.531-.683 2.237-1.274a28.927 28.927 0 0 0 2.123-1.983c.284 2.617.419 3.922.676 6.525-1.373 1.54-2.96 2.635-4.776 3.265-2.602.901-4.769.312-6.457-1.74-2.358-2.863-3.288-6.736-3.887-10.228-.507-2.96-.667-5.697-.37-8.188.299-2.492 1.021-4.578 2.197-6.248 1.176-1.668 2.741-2.808 4.682-3.38 2.12-.625 4.282-.5 6.42.363-.328 2.628-.49 3.943-.805 6.577a12.558 12.558 0 0 0-2.305-.669c-.76-.14-1.547-.089-2.357.153M80.841 77.404c-1.867.611-2.802.93-4.67 1.577-.094-3.583-.21-7.164-.346-10.746-2.28.592-3.42.909-5.686 1.565.236 3.699.452 7.397.647 11.097a543.94 543.94 0 0 0-4.621 1.702 786.327 786.327 0 0 0-2.592-28.058c2.09-.522 3.143-.767 5.255-1.218.308 3.452.599 6.903.872 10.357 2.332-.6 3.505-.882 5.851-1.4-.17-3.375-.368-6.75-.596-10.122 2.125-.353 3.19-.508 5.317-.765.355 8.67.554 17.335.57 26.01M83.081 70.83c.016-4.962-.052-9.924-.171-14.884a91.631 91.631 0 0 1 3.007-.346c.033 4.85.019 9.698-.047 14.549-1.113.261-1.672.398-2.789.68M103.118 71.102c-2.182.296-3.295.486-5.55.931-1.615-4.838-3.362-9.638-5.151-14.426l-.11.006c.083 2.564.08 4.473.025 5.79a365.97 365.97 0 0 1-.54 9.923c-1.56.388-2.345.595-3.922 1.031a581.21 581.21 0 0 0 .37-23.621c2.637-.112 3.95-.123 6.546-.038 1.87 4.99 3.694 9.994 5.37 15.04l.067-.005c.113-1.999.217-3.657.332-4.92.297-3.202.545-6.412.747-9.62 1.728.21 2.584.34 4.275.66-.643 6.436-1.393 12.856-2.459 19.249M110.887 67.267c-2.08-.128-3.15-.14-5.33-.08a378.17 378.17 0 0 0 1.588-10.94c2.356.397 3.512.651 5.765 1.284-.161.896-.243 1.339-.411 2.213a44.156 44.156 0 0 0-3.058-.632c-.106.675-.16 1.01-.27 1.674 1.133.166 1.693.262 2.8.484-.171.862-.258 1.287-.434 2.127a44.719 44.719 0 0 0-2.752-.35c-.138.779-.207 1.164-.35 1.925 1.186.072 1.772.122 2.926.255-.186.827-.281 1.236-.474 2.04M15.666 47.318c.39-.253.588-.38.984-.631.817-.52 1.354-1.255 1.6-2.228.246-.971.156-2.052-.29-3.213-.747-1.952-1.946-2.365-3.502-1.255-.581.414-.868.622-1.438 1.04a218.137 218.137 0 0 1 2.646 6.287m8.29-9.771c.961 2.691 1.341 6.48.476 9.276-.812 2.628-2.436 4.597-4.83 5.92-.6.332-.896.498-1.483.83 1.241 3.256 2.396 6.535 3.543 9.82-1.996.891-2.956 1.326-4.788 2.15-3.502-8.688-7.358-17.184-11.851-25.498 2.645-2.476 4.053-3.694 7.011-6.037 2.699-2.14 5.185-2.912 7.24-2.248 2.055.663 3.581 2.708 4.681 5.787M39.27 51.923c-1.03.658-1.54.989-2.543 1.65a274.625 274.625 0 0 0-2.093-5.86c-1.183.805-1.765 1.21-2.91 2.018a254.28 254.28 0 0 1 2.146 5.752c-.972.659-1.45.989-2.393 1.643-1.75-4.565-3.581-9.09-5.515-13.595.983-.77 1.483-1.154 2.497-1.92.84 1.994 1.252 3.005 2.064 5.047a159.173 159.173 0 0 1 2.937-2.083 246.035 246.035 0 0 0-2.019-5.167 139.63 139.63 0 0 1 2.658-1.882 329.87 329.87 0 0 1 5.17 14.397M41.221 33.602c1.007 4.355 2.531 6.151 4.696 5.402 1.101-.38 1.818-1.191 2.147-2.453.329-1.26.276-3.04-.185-5.33-.463-2.3-1.1-3.902-1.903-4.797-.804-.895-1.78-1.137-2.906-.717-2.29.854-2.865 3.498-1.849 7.895m11.47-3.842c.54 2.956.79 6.444-.475 9.527-.997 2.429-2.755 4.042-5.265 4.892-2.474.837-4.53.516-6.274-.967-1.745-1.482-3.012-4.162-4.02-7.771-.758-2.716-1.108-6.491-.141-9.271.876-2.523 2.658-4.412 5.39-5.467 2.74-1.057 5.12-.77 6.94.79 2.483 2.129 3.348 5.55 3.845 8.267M68.077 36.68c-.313 3.58.432 5.542 2.218 5.93.909.197 1.624-.079 2.157-.829.532-.75.903-2.022 1.107-3.823.205-1.81.129-3.205-.237-4.192-.365-.986-1.013-1.604-1.938-1.834-1.882-.467-2.99 1.135-3.307 4.748m9.303 2.304c-.394 2.991-1.237 5.115-2.504 6.425-1.268 1.31-2.915 1.754-4.99 1.329-2.046-.42-3.551-1.52-4.537-3.363-.986-1.843-1.388-4.342-1.167-7.49.219-3.116.965-5.392 2.268-6.78 1.303-1.39 3.103-1.815 5.345-1.232 2.248.584 3.85 1.88 4.79 3.777.94 1.897 1.19 4.335.795 7.334M60.475 40.644c-1.75-.347-2.628-.509-4.384-.804.355-5.915.723-11.829 1.104-17.742a90.821 90.821 0 0 0-4.277-.656c.096-2.018.144-3.026.244-5.043 4.561.604 9.071 1.512 13.493 2.685-.206 1.974-.308 2.962-.51 4.938a99.027 99.027 0 0 0-4.231-1.002c-.493 5.874-.972 11.749-1.439 17.624"/>
        <path fill="#FFF" d="M15.666 47.318c.39-.253.588-.38.984-.631.817-.52 1.354-1.255 1.6-2.228.246-.971.156-2.052-.29-3.213-.747-1.952-1.946-2.365-3.502-1.255-.581.414-.868.622-1.438 1.04a218.137 218.137 0 0 1 2.646 6.287m8.29-9.771c.961 2.691 1.341 6.48.476 9.276-.812 2.628-2.436 4.597-4.83 5.92-.6.332-.896.498-1.483.83 1.241 3.256 2.396 6.535 3.543 9.82-1.996.891-2.956 1.326-4.788 2.15-3.502-8.688-7.358-17.184-11.851-25.498 2.645-2.476 4.053-3.694 7.011-6.037 2.699-2.14 5.185-2.912 7.24-2.248 2.055.663 3.581 2.708 4.681 5.787M39.27 51.923c-1.03.658-1.54.989-2.543 1.65a274.625 274.625 0 0 0-2.093-5.86c-1.183.805-1.765 1.21-2.91 2.018a254.28 254.28 0 0 1 2.146 5.752c-.972.659-1.45.989-2.393 1.643-1.75-4.565-3.581-9.09-5.515-13.595.983-.77 1.483-1.154 2.497-1.92.84 1.994 1.252 3.005 2.064 5.047a159.173 159.173 0 0 1 2.937-2.083 246.035 246.035 0 0 0-2.019-5.167 139.63 139.63 0 0 1 2.658-1.882 329.87 329.87 0 0 1 5.17 14.397M41.221 33.602c1.007 4.355 2.531 6.151 4.696 5.402 1.101-.38 1.818-1.191 2.147-2.453.329-1.26.276-3.04-.185-5.33-.463-2.3-1.1-3.902-1.903-4.797-.804-.895-1.78-1.137-2.906-.717-2.29.854-2.865 3.498-1.849 7.895m11.47-3.842c.54 2.956.79 6.444-.475 9.527-.997 2.429-2.755 4.042-5.265 4.892-2.474.837-4.53.516-6.274-.967-1.745-1.482-3.012-4.162-4.02-7.771-.758-2.716-1.108-6.491-.141-9.271.876-2.523 2.658-4.412 5.39-5.467 2.74-1.057 5.12-.77 6.94.79 2.483 2.129 3.348 5.55 3.845 8.267M68.077 36.68c-.313 3.58.432 5.542 2.218 5.93.909.197 1.624-.079 2.157-.829.532-.75.903-2.022 1.107-3.823.205-1.81.129-3.205-.237-4.192-.365-.986-1.013-1.604-1.938-1.834-1.882-.467-2.99 1.135-3.307 4.748m9.303 2.304c-.394 2.991-1.237 5.115-2.504 6.425-1.268 1.31-2.915 1.754-4.99 1.329-2.046-.42-3.551-1.52-4.537-3.363-.986-1.843-1.388-4.342-1.167-7.49.219-3.116.965-5.392 2.268-6.78 1.303-1.39 3.103-1.815 5.345-1.232 2.248.584 3.85 1.88 4.79 3.777.94 1.897 1.19 4.335.795 7.334M60.475 40.644c-1.75-.347-2.628-.509-4.384-.804.355-5.915.723-11.829 1.104-17.742a90.821 90.821 0 0 0-4.277-.656c.096-2.018.144-3.026.244-5.043 4.561.604 9.071 1.512 13.493 2.685-.206 1.974-.308 2.962-.51 4.938a99.027 99.027 0 0 0-4.231-1.002c-.493 5.874-.972 11.749-1.439 17.624"/>
        <path fill="url(#c)" d="M84.045 45.653a84.027 84.027 0 0 0-4.176.303c.728-1.633 1.271-3.542 1.609-5.745.62-3.79.405-7.778-1.278-11.332-1.462-3.087-4.209-5.65-7.83-6.661a11.051 11.051 0 0 0-1.401-.29c.353-2.877.532-4.315.892-7.185-7.623-2.295-15.111-3.857-23.092-4.689-.064 1.968-.096 2.952-.157 4.919-2.41-1.027-5.146-.984-8.051.187-4.036 1.627-6.807 4.95-8.004 8.703-.856 2.682-1.078 5.628-.675 8.804a132.776 132.776 0 0 0-4.176 3.124 24.65 24.65 0 0 1-.08-.272c-.945-3.362-3.326-7.655-7.242-8.926-3.934-1.278-7.38 1.31-10.259 3.266C6.57 33.002 3.146 36.207 0 39.69c5.219 8.125 9.55 16.536 13.47 25.225-1.778.856-2.62 1.264-4.203 2.011 5.45 10.808 9.893 21.895 13.83 33.214 6.398 2.776 14.222.54 20.5-1.178a571.446 571.446 0 0 0-1.617-8.953c4.468-1.404 8.854-2.992 13.24-4.587-.173-.52-.26-.78-.436-1.299 1.08.082 2.218-.094 3.427-.538 1.542-.566 2.978-1.45 4.306-2.606.312 3.417.456 5.12.72 8.505 6.95-2.846 13.896-5.682 20.934-8.35l.027-.906.092-.03c3.44-1.249 6.946-2.418 10.474-3.451l.088-.837.253.737c3.405-1.02 6.949-1.907 10.468-2.551.305-1.336.454-2.02.742-3.419 2.794-.255 4.154-.312 6.759-.246 1.648-5.037 2.814-10.18 3.902-15.334-2.991-1.284-4.549-1.802-7.743-2.622.193-1.578.285-2.38.462-4.006a96.576 96.576 0 0 0-12.006-2.458l-.032.994-.387-1.04c-4.35-.456-8.744-.54-13.115-.317l-.11.006z"/>
        <path fill="#FFF" d="M29.061 96.096c-2.854-6.864-5.942-13.586-9.427-20.21l-.09.024c1.342 3.248 2.31 5.885 2.948 7.784a378.844 378.844 0 0 1 3.939 12.468c-1.244-.03-1.841-.082-2.984-.275-2.968-8.797-6.23-17.47-9.954-26.033a202.15 202.15 0 0 0 5.324-2.126c3.594 6.313 6.779 12.734 9.73 19.31l.083-.016a4880.746 4880.746 0 0 1-2.843-22.185 523.344 523.344 0 0 1 6.598-2.698A629.006 629.006 0 0 1 39.7 94.076a65.198 65.198 0 0 1-3.96.995 722.895 722.895 0 0 0-3.297-13.895c-.18-.712-.374-1.502-.584-2.37-.21-.867-.701-3.004-1.504-6.361l-.107.037c.819 7.726 1.65 15.45 2.493 23.173-1.524.25-2.261.342-3.681.441M44.302 75.121c-.411-1.156-.62-1.733-1.04-2.883a343.14 343.14 0 0 1-.913-2.476 79.046 79.046 0 0 1-.775-2.18c.042.442.097 1.178.164 2.206.068 1.028.167 3.065.3 6.11l2.264-.777m2.463 7.244a282.97 282.97 0 0 0-1.12-3.323c-1.375.47-2.055.702-3.393 1.15l.148 3.642a183.37 183.37 0 0 1-2.95.948c-.195-6.496-.368-12.992-.52-19.489a373.6 373.6 0 0 1 4.025-1.457 396.46 396.46 0 0 1 6.935 17.447c-1.263.44-1.89.658-3.125 1.082M54.677 54.501c-1.229.368-2.059 1.426-2.488 3.16-.43 1.734-.49 4.03 0 6.612.523 2.765 1.481 7.77 5.11 7.055.71-.14 1.531-.683 2.237-1.274a28.927 28.927 0 0 0 2.123-1.983c.284 2.617.419 3.922.676 6.525-1.373 1.54-2.96 2.635-4.776 3.265-2.602.901-4.769.312-6.457-1.74-2.358-2.863-3.288-6.736-3.887-10.228-.507-2.96-.667-5.697-.37-8.188.299-2.492 1.021-4.578 2.197-6.248 1.176-1.668 2.741-2.808 4.682-3.38 2.12-.625 4.282-.5 6.42.363-.328 2.628-.49 3.943-.805 6.577a12.558 12.558 0 0 0-2.305-.669c-.76-.14-1.547-.089-2.357.153M80.841 77.404c-1.867.611-2.802.93-4.67 1.577-.094-3.583-.21-7.164-.346-10.746-2.28.592-3.42.909-5.686 1.565.236 3.699.452 7.397.647 11.097a543.94 543.94 0 0 0-4.621 1.702 786.327 786.327 0 0 0-2.592-28.058c2.09-.522 3.143-.767 5.255-1.218.308 3.452.599 6.903.872 10.357 2.332-.6 3.505-.882 5.851-1.4-.17-3.375-.368-6.75-.596-10.122 2.125-.353 3.19-.508 5.317-.765.355 8.67.554 17.335.57 26.01M83.081 70.83c.016-4.962-.052-9.924-.171-14.884a91.631 91.631 0 0 1 3.007-.346c.033 4.85.019 9.698-.047 14.549-1.113.261-1.672.398-2.789.68M103.118 71.102c-2.182.296-3.295.486-5.55.931-1.615-4.838-3.362-9.638-5.151-14.426l-.11.006c.083 2.564.08 4.473.025 5.79a365.97 365.97 0 0 1-.54 9.923c-1.56.388-2.345.595-3.922 1.031a581.21 581.21 0 0 0 .37-23.621c2.637-.112 3.95-.123 6.546-.038 1.87 4.99 3.694 9.994 5.37 15.04l.067-.005c.113-1.999.217-3.657.332-4.92.297-3.202.545-6.412.747-9.62 1.728.21 2.584.34 4.275.66-.643 6.436-1.393 12.856-2.459 19.249M110.887 67.267c-2.08-.128-3.15-.14-5.33-.08a378.17 378.17 0 0 0 1.588-10.94c2.356.397 3.512.651 5.765 1.284-.161.896-.243 1.339-.411 2.213a44.156 44.156 0 0 0-3.058-.632c-.106.675-.16 1.01-.27 1.674 1.133.166 1.693.262 2.8.484-.171.862-.258 1.287-.434 2.127a44.719 44.719 0 0 0-2.752-.35c-.138.779-.207 1.164-.35 1.925 1.186.072 1.772.122 2.926.255-.186.827-.281 1.236-.474 2.04"/>
        <path fill="#FFF" d="M29.061 96.096c-2.854-6.864-5.942-13.586-9.427-20.21l-.09.024c1.342 3.248 2.31 5.885 2.948 7.784a378.844 378.844 0 0 1 3.939 12.468c-1.244-.03-1.841-.082-2.984-.275-2.968-8.797-6.23-17.47-9.954-26.033a202.15 202.15 0 0 0 5.324-2.126c3.594 6.313 6.779 12.734 9.73 19.31l.083-.016a4880.746 4880.746 0 0 1-2.843-22.185 523.344 523.344 0 0 1 6.598-2.698A629.006 629.006 0 0 1 39.7 94.076a65.198 65.198 0 0 1-3.96.995 722.895 722.895 0 0 0-3.297-13.895c-.18-.712-.374-1.502-.584-2.37-.21-.867-.701-3.004-1.504-6.361l-.107.037c.819 7.726 1.65 15.45 2.493 23.173-1.524.25-2.261.342-3.681.441M44.302 75.121c-.411-1.156-.62-1.733-1.04-2.883a343.14 343.14 0 0 1-.913-2.476 79.046 79.046 0 0 1-.775-2.18c.042.442.097 1.178.164 2.206.068 1.028.167 3.065.3 6.11l2.264-.777m2.463 7.244a282.97 282.97 0 0 0-1.12-3.323c-1.375.47-2.055.702-3.393 1.15l.148 3.642a183.37 183.37 0 0 1-2.95.948c-.195-6.496-.368-12.992-.52-19.489a373.6 373.6 0 0 1 4.025-1.457 396.46 396.46 0 0 1 6.935 17.447c-1.263.44-1.89.658-3.125 1.082M54.677 54.501c-1.229.368-2.059 1.426-2.488 3.16-.43 1.734-.49 4.03 0 6.612.523 2.765 1.481 7.77 5.11 7.055.71-.14 1.531-.683 2.237-1.274a28.927 28.927 0 0 0 2.123-1.983c.284 2.617.419 3.922.676 6.525-1.373 1.54-2.96 2.635-4.776 3.265-2.602.901-4.769.312-6.457-1.74-2.358-2.863-3.288-6.736-3.887-10.228-.507-2.96-.667-5.697-.37-8.188.299-2.492 1.021-4.578 2.197-6.248 1.176-1.668 2.741-2.808 4.682-3.38 2.12-.625 4.282-.5 6.42.363-.328 2.628-.49 3.943-.805 6.577a12.558 12.558 0 0 0-2.305-.669c-.76-.14-1.547-.089-2.357.153M80.841 77.404c-1.867.611-2.802.93-4.67 1.577-.094-3.583-.21-7.164-.346-10.746-2.28.592-3.42.909-5.686 1.565.236 3.699.452 7.397.647 11.097a543.94 543.94 0 0 0-4.621 1.702 786.327 786.327 0 0 0-2.592-28.058c2.09-.522 3.143-.767 5.255-1.218.308 3.452.599 6.903.872 10.357 2.332-.6 3.505-.882 5.851-1.4-.17-3.375-.368-6.75-.596-10.122 2.125-.353 3.19-.508 5.317-.765.355 8.67.554 17.335.57 26.01M83.081 70.83c.016-4.962-.052-9.924-.171-14.884a91.631 91.631 0 0 1 3.007-.346c.033 4.85.019 9.698-.047 14.549-1.113.261-1.672.398-2.789.68M103.118 71.102c-2.182.296-3.295.486-5.55.931-1.615-4.838-3.362-9.638-5.151-14.426l-.11.006c.083 2.564.08 4.473.025 5.79a365.97 365.97 0 0 1-.54 9.923c-1.56.388-2.345.595-3.922 1.031a581.21 581.21 0 0 0 .37-23.621c2.637-.112 3.95-.123 6.546-.038 1.87 4.99 3.694 9.994 5.37 15.04l.067-.005c.113-1.999.217-3.657.332-4.92.297-3.202.545-6.412.747-9.62 1.728.21 2.584.34 4.275.66-.643 6.436-1.393 12.856-2.459 19.249M110.887 67.267c-2.08-.128-3.15-.14-5.33-.08a378.17 378.17 0 0 0 1.588-10.94c2.356.397 3.512.651 5.765 1.284-.161.896-.243 1.339-.411 2.213a44.156 44.156 0 0 0-3.058-.632c-.106.675-.16 1.01-.27 1.674 1.133.166 1.693.262 2.8.484-.171.862-.258 1.287-.434 2.127a44.719 44.719 0 0 0-2.752-.35c-.138.779-.207 1.164-.35 1.925 1.186.072 1.772.122 2.926.255-.186.827-.281 1.236-.474 2.04M15.666 47.318c.39-.253.588-.38.984-.631.817-.52 1.354-1.255 1.6-2.228.246-.971.156-2.052-.29-3.213-.747-1.952-1.946-2.365-3.502-1.255-.581.414-.868.622-1.438 1.04a218.137 218.137 0 0 1 2.646 6.287m8.29-9.771c.961 2.691 1.341 6.48.476 9.276-.812 2.628-2.436 4.597-4.83 5.92-.6.332-.896.498-1.483.83 1.241 3.256 2.396 6.535 3.543 9.82-1.996.891-2.956 1.326-4.788 2.15-3.502-8.688-7.358-17.184-11.851-25.498 2.645-2.476 4.053-3.694 7.011-6.037 2.699-2.14 5.185-2.912 7.24-2.248 2.055.663 3.581 2.708 4.681 5.787M39.27 51.923c-1.03.658-1.54.989-2.543 1.65a274.625 274.625 0 0 0-2.093-5.86c-1.183.805-1.765 1.21-2.91 2.018a254.28 254.28 0 0 1 2.146 5.752c-.972.659-1.45.989-2.393 1.643-1.75-4.565-3.581-9.09-5.515-13.595.983-.77 1.483-1.154 2.497-1.92.84 1.994 1.252 3.005 2.064 5.047a159.173 159.173 0 0 1 2.937-2.083 246.035 246.035 0 0 0-2.019-5.167 139.63 139.63 0 0 1 2.658-1.882 329.87 329.87 0 0 1 5.17 14.397M41.221 33.602c1.007 4.355 2.531 6.151 4.696 5.402 1.101-.38 1.818-1.191 2.147-2.453.329-1.26.276-3.04-.185-5.33-.463-2.3-1.1-3.902-1.903-4.797-.804-.895-1.78-1.137-2.906-.717-2.29.854-2.865 3.498-1.849 7.895m11.47-3.842c.54 2.956.79 6.444-.475 9.527-.997 2.429-2.755 4.042-5.265 4.892-2.474.837-4.53.516-6.274-.967-1.745-1.482-3.012-4.162-4.02-7.771-.758-2.716-1.108-6.491-.141-9.271.876-2.523 2.658-4.412 5.39-5.467 2.74-1.057 5.12-.77 6.94.79 2.483 2.129 3.348 5.55 3.845 8.267M68.077 36.68c-.313 3.58.432 5.542 2.218 5.93.909.197 1.624-.079 2.157-.829.532-.75.903-2.022 1.107-3.823.205-1.81.129-3.205-.237-4.192-.365-.986-1.013-1.604-1.938-1.834-1.882-.467-2.99 1.135-3.307 4.748m9.303 2.304c-.394 2.991-1.237 5.115-2.504 6.425-1.268 1.31-2.915 1.754-4.99 1.329-2.046-.42-3.551-1.52-4.537-3.363-.986-1.843-1.388-4.342-1.167-7.49.219-3.116.965-5.392 2.268-6.78 1.303-1.39 3.103-1.815 5.345-1.232 2.248.584 3.85 1.88 4.79 3.777.94 1.897 1.19 4.335.795 7.334M60.475 40.644c-1.75-.347-2.628-.509-4.384-.804.355-5.915.723-11.829 1.104-17.742a90.821 90.821 0 0 0-4.277-.656c.096-2.018.144-3.026.244-5.043 4.561.604 9.071 1.512 13.493 2.685-.206 1.974-.308 2.962-.51 4.938a99.027 99.027 0 0 0-4.231-1.002c-.493 5.874-.972 11.749-1.439 17.624"/>
        <path fill="#FFF" d="M15.666 47.318c.39-.253.588-.38.984-.631.817-.52 1.354-1.255 1.6-2.228.246-.971.156-2.052-.29-3.213-.747-1.952-1.946-2.365-3.502-1.255-.581.414-.868.622-1.438 1.04a218.137 218.137 0 0 1 2.646 6.287m8.29-9.771c.961 2.691 1.341 6.48.476 9.276-.812 2.628-2.436 4.597-4.83 5.92-.6.332-.896.498-1.483.83 1.241 3.256 2.396 6.535 3.543 9.82-1.996.891-2.956 1.326-4.788 2.15-3.502-8.688-7.358-17.184-11.851-25.498 2.645-2.476 4.053-3.694 7.011-6.037 2.699-2.14 5.185-2.912 7.24-2.248 2.055.663 3.581 2.708 4.681 5.787M39.27 51.923c-1.03.658-1.54.989-2.543 1.65a274.625 274.625 0 0 0-2.093-5.86c-1.183.805-1.765 1.21-2.91 2.018a254.28 254.28 0 0 1 2.146 5.752c-.972.659-1.45.989-2.393 1.643-1.75-4.565-3.581-9.09-5.515-13.595.983-.77 1.483-1.154 2.497-1.92.84 1.994 1.252 3.005 2.064 5.047a159.173 159.173 0 0 1 2.937-2.083 246.035 246.035 0 0 0-2.019-5.167 139.63 139.63 0 0 1 2.658-1.882 329.87 329.87 0 0 1 5.17 14.397M41.221 33.602c1.007 4.355 2.531 6.151 4.696 5.402 1.101-.38 1.818-1.191 2.147-2.453.329-1.26.276-3.04-.185-5.33-.463-2.3-1.1-3.902-1.903-4.797-.804-.895-1.78-1.137-2.906-.717-2.29.854-2.865 3.498-1.849 7.895m11.47-3.842c.54 2.956.79 6.444-.475 9.527-.997 2.429-2.755 4.042-5.265 4.892-2.474.837-4.53.516-6.274-.967-1.745-1.482-3.012-4.162-4.02-7.771-.758-2.716-1.108-6.491-.141-9.271.876-2.523 2.658-4.412 5.39-5.467 2.74-1.057 5.12-.77 6.94.79 2.483 2.129 3.348 5.55 3.845 8.267M68.077 36.68c-.313 3.58.432 5.542 2.218 5.93.909.197 1.624-.079 2.157-.829.532-.75.903-2.022 1.107-3.823.205-1.81.129-3.205-.237-4.192-.365-.986-1.013-1.604-1.938-1.834-1.882-.467-2.99 1.135-3.307 4.748m9.303 2.304c-.394 2.991-1.237 5.115-2.504 6.425-1.268 1.31-2.915 1.754-4.99 1.329-2.046-.42-3.551-1.52-4.537-3.363-.986-1.843-1.388-4.342-1.167-7.49.219-3.116.965-5.392 2.268-6.78 1.303-1.39 3.103-1.815 5.345-1.232 2.248.584 3.85 1.88 4.79 3.777.94 1.897 1.19 4.335.795 7.334M60.475 40.644c-1.75-.347-2.628-.509-4.384-.804.355-5.915.723-11.829 1.104-17.742a90.821 90.821 0 0 0-4.277-.656c.096-2.018.144-3.026.244-5.043 4.561.604 9.071 1.512 13.493 2.685-.206 1.974-.308 2.962-.51 4.938a99.027 99.027 0 0 0-4.231-1.002c-.493 5.874-.972 11.749-1.439 17.624"/>
    </g>
</svg>
