<svg xmlns="http://www.w3.org/2000/svg" width="105" height="102" viewBox="0 0 105 102">
    <g fill="none" fill-rule="evenodd">
        <path d="M0-2h104.236v104.236H0z"/>
        <path fill="#4B189B" d="M95.952 51.293c-.25-.236-.509-.459-.768-.684 4.341-3.596 6.911-7.66 7.7-12.195.921-5.302-.55-10.73-4.412-16.282-3.746-5.383-8.272-8.539-13.575-9.468-4.495-.787-9.138.194-13.926 2.93-7.173-7.317-14.655-11.31-22.446-11.977-8.872-.76-17.65 2.597-26.335 10.071C13.5 21.164 8.993 29.434 8.664 38.506a31.085 31.085 0 0 0 .59 7.2c-.39.32-.77.648-1.137.99C2.705 51.756 0 58.936 0 68.238c0 9.307 2.83 16.46 8.495 21.467 5.664 5.006 13.502 7.51 23.514 7.51 6.357 0 11.83-1.092 16.431-3.26.166.155.327.314.498.466 5.689 5.029 13.563 7.544 23.621 7.544 9.753 0 17.449-2.542 23.088-7.62 5.638-5.08 8.457-12.242 8.457-21.489 0-9.243-2.719-16.432-8.152-21.563"/>
        <path fill="#8547EB" d="M95.952 48.45c-.25-.235-.509-.459-.768-.684 4.341-3.596 6.911-7.66 7.7-12.195.921-5.302-.55-10.73-4.412-16.282-3.746-5.383-8.272-8.539-13.575-9.468-4.495-.787-9.138.194-13.926 2.93C63.798 5.435 56.316 1.44 48.525.775c-8.872-.76-17.65 2.596-26.335 10.07C13.5 18.322 8.993 26.592 8.664 35.664a31.085 31.085 0 0 0 .59 7.2c-.39.32-.77.648-1.137.99C2.705 48.914 0 56.094 0 65.397c0 9.306 2.83 16.46 8.495 21.466 5.664 5.006 13.502 7.51 23.514 7.51 6.357 0 11.83-1.092 16.431-3.26.166.155.327.315.498.466 5.689 5.03 13.563 7.544 23.621 7.544 9.753 0 17.449-2.541 23.088-7.62 5.638-5.08 8.457-12.242 8.457-21.488 0-9.244-2.719-16.433-8.152-21.564"/>
        <g>
            <path d="M24.164 22.164h56.243v56.243H24.164z"/>
            <path fill="#FFF" d="M77.156 33.185c-.344-1.43-1.298-2.538-2.86-3.324-1.514-.764-2.982-.868-4.401-.315-1.193.466-2.225 1.4-3.114 2.752-.099-.001-.196-.012-.296-.002-.776.074-1.483.486-2.12 1.236s-.927 1.495-.872 2.236c.016.197.06.39.126.577-1.162.56-2.274 1.421-3.324 2.66-1.654 1.953-2.45 3.86-2.385 5.72.001.031.007.061.008.092-1.954.507-3.838 1.823-5.646 3.968-1.906 2.263-2.895 4.41-2.97 6.438-.01.277.002.546.028.812-.878.265-1.736.704-2.578 1.297-1.553-1.46-3.114-2.335-4.686-2.62-.395-1.052-1.009-2.144-1.862-3.28-1.706-2.274-3.459-3.647-5.254-4.12-1.797-.473-3.54-.068-5.23 1.212-1.691 1.28-2.532 2.876-2.522 4.79.008 1.913.825 3.951 2.45 6.115 1.42 1.891 2.948 3.104 4.575 3.711.364 1.781 1.36 3.598 3.006 5.451 1.966 2.211 3.948 3.498 5.946 3.864a5.765 5.765 0 0 0 1.973.018c1.606.935 3.237 1.24 4.896.887 2.07-.438 4.07-1.8 5.999-4.085 1.142-1.353 1.932-2.666 2.386-3.945.768-.259 1.492-.783 2.17-1.579.885-1.042 1.273-2.074 1.165-3.097a3.407 3.407 0 0 0-.138-.608c.737-.601 1.466-1.33 2.189-2.187 1.904-2.258 2.866-4.396 2.896-6.414 1.8-.353 3.505-1.452 5.105-3.34 1.674-1.976 2.447-3.9 2.317-5.774a5.947 5.947 0 0 0-.28-1.422c.86-.662 1.636-1.591 2.317-2.834 1.002-1.83 1.33-3.46.986-4.89"/>
        </g>
    </g>
</svg>
