<svg xmlns="http://www.w3.org/2000/svg" width="124" height="144" viewBox="0 0 124 144">
    <g fill="none" fill-rule="evenodd">
        <path d="M-9.606.394H135.62V145.62H-9.606z"/>
        <path fill="#FFF" d="M117.03 49.034c-2.126-2.933-4.723-5.412-7.782-7.444a47.14 47.14 0 0 0-2.242-3.431c-8.25-11.375-21.254-18.156-39.008-20.334a93.755 93.755 0 0 0-2.694-.283c-4.658-2.677-10.275-4.426-16.862-5.234-12.523-1.535-22.425.73-29.705 6.796C11.454 25.172 7.04 34.51 5.493 47.124c-.696 5.67-.631 10.83.18 15.49a101.051 101.051 0 0 0-1.022 6.561 99.145 99.145 0 0 0-.27 2.566c-1.797 4.288-3.036 9.21-3.718 14.77-1.547 12.616.632 22.728 6.544 30.342 5.909 7.615 14.825 12.153 26.745 13.614 1.79.22 3.528.34 5.222.38 3.695 1.204 7.657 2.133 11.893 2.782 5.73 5.325 13.476 8.591 23.241 9.789 11.557 1.417 21.098-.893 28.621-6.929 7.523-6.035 12.049-15.291 13.579-27.77.438-3.565.574-6.93.429-10.105 3.183-5.225 5.249-11.652 6.187-19.292 1.53-12.476-.504-22.572-6.094-30.288"/>
        <path fill="#702BE0" d="M46.161 31.1c-4.052-.895-6.13-.916-10.39-.103-1.035.198-1.945-.696-2.002-2.078a196.019 196.019 0 0 1 .228-22.312C34.328 1.293 39.13-.513 44.673.81c5.544 1.323 9.673 4.678 8.768 9.267-1.521 7.713-2.489 11.576-4.834 19.312-.365 1.198-1.461 1.929-2.446 1.71M108.036 48.935c-5.919-.583-8.654-2.697-14.571-3.28-3.605-.355-5.397-1.82-3.796-4.969l.649-1.276c1.6-3.149 4.89-6.195 7.21-5.694 3.808.822 5.569 2.423 9.377 3.246 2.32.5 5.018 2.269 5.89 5.059l.354 1.13c.872 2.79-1.51 6.14-5.113 5.784M61.895 53.81c-15.939 0-28.93 10.555-31.231 25.656-2.023 13.268 6.213 28.745 25.869 32.654 8.141 1.62 15.522.19 21.345-4.135 6.223-4.622 10.139-12.197 11.026-21.327.913-9.386-1.552-18.225-6.76-24.254-4.514-5.224-10.9-8.181-18.47-8.55-.597-.03-1.19-.044-1.779-.044m.887 67.287c-2.576 0-5.212-.262-7.877-.792-10.005-1.99-18.83-7.1-24.85-14.39-6.46-7.822-9.173-17.661-7.642-27.706 1.486-9.749 6.622-18.418 14.46-24.41 7.62-5.825 17.285-8.765 27.206-8.28 9.906.483 18.338 4.435 24.38 11.43 6.694 7.747 9.883 18.87 8.752 30.516-1.119 11.507-6.217 21.174-14.358 27.22-5.687 4.224-12.628 6.412-20.071 6.412"/>
        <path fill="#702BE0" d="M81.915 85.72C80.573 98.395 70.069 107.35 57.223 105c-11.734-2.147-21.043-12.39-19.3-24.715 1.7-12.012 12.846-20.043 24.693-19.28 12.926.835 20.604 12.388 19.299 24.716"/>
    </g>
</svg>
