<svg xmlns="http://www.w3.org/2000/svg" width="61" height="67" viewBox="0 0 61 67">
    <path fill="#FFFBB3" fill-rule="evenodd" stroke="#FFFBB3" stroke-width="8" d="M43.008 46.681c-1.069.875-1.265 2.37-.39 3.433.873 1.064 2.373 1.254 3.442.38 7.822-6.17 13.4-17.895 8.418-30.223C48.668 5.888 32.196 1.212 20.5 5.938 8.805 10.663.281 25.438 6.092 39.82c3.136 7.762 9.48 12.458 15.359 14.686l-7.553 2.874c-1.3.525-1.893 1.916-1.37 3.21a2.475 2.475 0 0 0 3.215 1.356l13.851-5.33A2.564 2.564 0 0 0 31 55.25a2.54 2.54 0 0 0 .012-1.952l-5.764-13.605c-.523-1.294-1.992-1.85-3.215-1.357-1.223.494-1.863 1.992-1.371 3.21l3.505 8.675c-4.93-1.638-10.782-5.558-13.488-12.255-4.734-11.72 2.265-23.665 11.744-27.494 9.402-3.8 22.735-.068 27.47 11.65 4.028 9.97-.56 19.524-6.884 24.558z"/>
</svg>
