<svg xmlns="http://www.w3.org/2000/svg" width="30" height="23" viewBox="0 0 30 23">
    <path fill="#030303" fill-rule="evenodd" d="M.4 12.753a1.492 1.492 0 0 1 0-2.11l9.24-9.24C10.029 1.014 10.787.7 11.347.7h14.917a3.494 3.494 0 0 1 3.492 3.498V19.2a3.5 3.5 0 0 1-3.492 3.499H11.347c-.553 0-1.32-.318-1.707-.705L.4 12.754zm19.188-1.083l3.655-3.655c.38-.38.384-1 .005-1.378a.972.972 0 0 0-1.378.005l-3.655 3.655-3.654-3.655a.977.977 0 0 0-1.379-.005.972.972 0 0 0 .006 1.378l3.655 3.655-3.655 3.654c-.38.38-.385 1-.006 1.379a.972.972 0 0 0 1.379-.006l3.654-3.655 3.655 3.655c.38.38 1 .385 1.378.006a.972.972 0 0 0-.005-1.379l-3.655-3.654zm-16.944.74a1.01 1.01 0 0 1 0-1.422l7.993-7.993c.196-.196.58-.355.858-.355H25.82c1.103 0 1.996.898 1.996 2.008v14.101a2.01 2.01 0 0 1-1.996 2.008H11.495c-.278 0-.66-.157-.858-.355L2.644 12.41z"/>
</svg>
