<?xml version="1.0" encoding="UTF-8" standalone="no"?>
<!-- Created with Inkscape (http://www.inkscape.org/) -->

<svg
   xmlns:dc="http://purl.org/dc/elements/1.1/"
   xmlns:cc="http://creativecommons.org/ns#"
   xmlns:rdf="http://www.w3.org/1999/02/22-rdf-syntax-ns#"
   xmlns:svg="http://www.w3.org/2000/svg"
   xmlns="http://www.w3.org/2000/svg"
   xmlns:sodipodi="http://sodipodi.sourceforge.net/DTD/sodipodi-0.dtd"
   xmlns:inkscape="http://www.inkscape.org/namespaces/inkscape"
   width="284"
   height="609"
   viewBox="0 0 75.14167 161.13126"
   version="1.1"
   id="svg8"
   inkscape:version="0.92.3 (2405546, 2018-03-11)"
   sodipodi:docname="animator-loader.svg">
  <defs
     id="defs2" />
  <sodipodi:namedview
     id="base"
     pagecolor="#ffffff"
     bordercolor="#666666"
     borderopacity="1.0"
     inkscape:pageopacity="0.0"
     inkscape:pageshadow="2"
     inkscape:zoom="0.49497475"
     inkscape:cx="50.936203"
     inkscape:cy="181.77547"
     inkscape:document-units="mm"
     inkscape:current-layer="layer1"
     showgrid="false"
     fit-margin-top="0"
     fit-margin-left="0"
     fit-margin-right="0"
     fit-margin-bottom="0"
     units="px"
     inkscape:window-width="1920"
     inkscape:window-height="1001"
     inkscape:window-x="-9"
     inkscape:window-y="-9"
     inkscape:window-maximized="1" />
  <metadata
     id="metadata5">
    <rdf:RDF>
      <cc:Work
         rdf:about="">
        <dc:format>image/svg+xml</dc:format>
        <dc:type
           rdf:resource="http://purl.org/dc/dcmitype/StillImage" />
        <dc:title></dc:title>
      </cc:Work>
    </rdf:RDF>
  </metadata>
  <g
     inkscape:label="Layer 1"
     inkscape:groupmode="layer"
     id="layer1"
     transform="translate(-78.845825,-88.678421)">
    <path
       style="opacity:1;fill:#ff0000;fill-opacity:1;stroke:none;stroke-width:2.96175551;stroke-miterlimit:4;stroke-dasharray:none"
       d="m 78.845823,218.90613 v 24.02127 c 0,3.81273 3.06954,6.88227 6.88227,6.88227 h 61.377127 c 3.81273,0 6.88227,-3.06954 6.88227,-6.88227 v -24.02127 z"
       id="rect864"
       inkscape:connector-curvature="0"
       sodipodi:nodetypes="csssscc" />
    <path
       inkscape:connector-curvature="0"
       id="path877"
       d="M 78.845823,186.68019 V 216.2603 H 153.98749 V 186.68019 Z"
       style="opacity:1;fill:#ff7200;fill-opacity:1;stroke:none;stroke-width:2.96175551;stroke-miterlimit:4;stroke-dasharray:none"
       sodipodi:nodetypes="ccccc" />
    <path
       style="opacity:1;fill:#ffb400;fill-opacity:1;stroke:none;stroke-width:2.96175551;stroke-miterlimit:4;stroke-dasharray:none"
       d="m 78.845823,154.45373 v 29.58063 h 75.141667 v -29.58063 z"
       id="path879"
       inkscape:connector-curvature="0"
       sodipodi:nodetypes="ccccc" />
    <path
       inkscape:connector-curvature="0"
       id="path881"
       d="M 78.845823,122.22779 V 151.8079 H 153.98749 V 122.22779 Z"
       style="opacity:1;fill:#f3dc12;fill-opacity:1;stroke:none;stroke-width:2.96175551;stroke-miterlimit:4;stroke-dasharray:none"
       sodipodi:nodetypes="ccccc" />
    <path
       style="opacity:1;fill:#ffde00;fill-opacity:1;stroke:none;stroke-width:2.96175551;stroke-miterlimit:4;stroke-dasharray:none"
       d="m 85.728093,88.678421 c -3.81274,0 -6.88227,3.069534 -6.88227,6.882267 V 119.58196 H 153.98749 V 95.560688 c 0,-3.812733 -3.06953,-6.882267 -6.88227,-6.882267 z"
       id="path883"
       inkscape:connector-curvature="0"
       sodipodi:nodetypes="ssccsss" />
  </g>
</svg>
